{
  "language_key" : "DE",
  "translations" : [
    {
      "key" : "language",
      "value" : "Sprache"
    },
    {
      "key" : "GMM EC",
      "value" : "GMM auf deutsch"
    },
    {
      "key" : "Empty Content",
      "value" : "Leerer Content"
    }
  ]
}