{
    "tutorialID" : 1,
    "explanation_url" : "http://clients.everywhere-m.com/guentner/app/tutorials/explain1/",
    "feedback_text" : "Here is the Feedback Text",
    "pages" : [
               {
               "page_type" : 30001,
               "steps" : [
                          {
                          "step_description_line1" : "line one description",
                          "step_description_line2" : "line two discription",
                          "show_equal_action_count" : false,
                          "button_type" : 50006,
                          "actions" : [
                                       {
                                       "start_line1_text" : "empty",
                                       "start_line2_text" : "empty 2",
                                       "end_line1_text" : "home tapped",
                                       "end_line2_text" : "home tapped 2",
                                       "start_line1_icons" : [
                                                              40001
                                                              ],
                                       "start_line2_icons" : [
                                                              4001
                                                              ],
                                       "end_line1_icons" : [
                                                            40001
                                                            ],
                                       "end_line2_icons" : [
                                                            40002
                                                            ]
                                       }
                                       ]
                          }
                          ]
               },
               {
               "page_type" : 30002,
               "steps" : [
                          {
                          "step_description_line1" : "line one description",
                          "step_description_line2" : "line two discription",
                          "show_equal_action_count" : false,
                          "button_type" : 50006,
                          "actions" : [
                                       {
                                       "start_line1_text" : "empty",
                                       "start_line2_text" : "empty 2",
                                       "end_line1_text" : "home tapped",
                                       "end_line2_text" : "home tapped 2",
                                       "start_line1_icons" : [
                                                              40001
                                                              ],
                                       "start_line2_icons" : [
                                                              4001
                                                              ],
                                       "end_line1_icons" : [
                                                            40001
                                                            ],
                                       "end_line2_icons" : [
                                                            40002
                                                            ]
                                       }
                                       ]
                          }
                          ]
               },
               {
               "page_type" : 30001,
               "steps" : [
                          {
                          "step_description_line1" : "line one description step 31",
                          "step_description_line2" : "line two discription 31",
                          "show_equal_action_count" : false,
                          "button_type" : 50006,
                          "actions" : [
                                       {
                                       "start_line1_text" : "action s 11",
                                       "start_line2_text" : "action s 12",
                                       "end_line1_text" : "action e 11 ",
                                       "end_line2_text" : "action e 12",
                                       "start_line1_icons" : [
                                                              40001
                                                              ],
                                       "start_line2_icons" : [
                                                              4001
                                                              ],
                                       "end_line1_icons" : [
                                                            40001
                                                            ],
                                       "end_line2_icons" : [
                                                            40002
                                                            ]
                                       },
                                       {
                                       "start_line1_text" : "action s 21",
                                       "start_line2_text" : "action s 22",
                                       "end_line1_text" : "action e 21 ",
                                       "end_line2_text" : "action e 22",
                                       "start_line1_icons" : [
                                                              40001
                                                              ],
                                       "start_line2_icons" : [
                                                              4001
                                                              ],
                                       "end_line1_icons" : [
                                                            40001
                                                            ],
                                       "end_line2_icons" : [
                                                            40002
                                                            ]
                                       },
                                       {
                                       "start_line1_text" : "action s 31",
                                       "start_line2_text" : "action s 32",
                                       "end_line1_text" : "action e 31 ",
                                       "end_line2_text" : "action e 32",
                                       "start_line1_icons" : [
                                                              40001
                                                              ],
                                       "start_line2_icons" : [
                                                              4001
                                                              ],
                                       "end_line1_icons" : [
                                                            40001
                                                            ],
                                       "end_line2_icons" : [
                                                            40002
                                                            ]
                                       },
                                       {
                                       "start_line1_text" : "action s 41",
                                       "start_line2_text" : "action s 42",
                                       "end_line1_text" : "action e 41 ",
                                       "end_line2_text" : "action e 42",
                                       "start_line1_icons" : [
                                                              40001
                                                              ],
                                       "start_line2_icons" : [
                                                              4001
                                                              ],
                                       "end_line1_icons" : [
                                                            40001
                                                            ],
                                       "end_line2_icons" : [
                                                            40002
                                                            ]
                                       },
                                       {
                                       "start_line1_text" : "action s 51",
                                       "start_line2_text" : "action s 52",
                                       "end_line1_text" : "action e 51 ",
                                       "end_line2_text" : "action e 52",
                                       "start_line1_icons" : [
                                                              40001
                                                              ],
                                       "start_line2_icons" : [
                                                              4001
                                                              ],
                                       "end_line1_icons" : [
                                                            40001
                                                            ],
                                       "end_line2_icons" : [
                                                            40002
                                                            ]
                                       },
                                       {
                                       "start_line1_text" : "action s 61",
                                       "start_line2_text" : "action s 62",
                                       "end_line1_text" : "action e 61 ",
                                       "end_line2_text" : "action e 62",
                                       "start_line1_icons" : [
                                                              40001
                                                              ],
                                       "start_line2_icons" : [
                                                              4001
                                                              ],
                                       "end_line1_icons" : [
                                                            40001
                                                            ],
                                       "end_line2_icons" : [
                                                            40002
                                                            ]
                                       }
                                       ]
                          },
                          {
                          "step_description_line1" : "line one description step 32",
                          "step_description_line2" : "line two discription 32",
                          "show_equal_action_count" : false,
                          "button_type" : 50006,
                          "actions" : [
                                       {
                                       "start_line1_text" : "action s 11",
                                       "start_line2_text" : "action s 12",
                                       "end_line1_text" : "action e 11 ",
                                       "end_line2_text" : "action e 12",
                                       "start_line1_icons" : [
                                                              40001
                                                              ],
                                       "start_line2_icons" : [
                                                              4001
                                                              ],
                                       "end_line1_icons" : [
                                                            40001
                                                            ],
                                       "end_line2_icons" : [
                                                            40002
                                                            ]
                                       },
                                       {
                                       "start_line1_text" : "action s 21",
                                       "start_line2_text" : "action s 22",
                                       "end_line1_text" : "action e 21 ",
                                       "end_line2_text" : "action e 22",
                                       "start_line1_icons" : [
                                                              40001
                                                              ],
                                       "start_line2_icons" : [
                                                              4001
                                                              ],
                                       "end_line1_icons" : [
                                                            40001
                                                            ],
                                       "end_line2_icons" : [
                                                            40002
                                                            ]
                                       },
                                       {
                                       "start_line1_text" : "action s 31",
                                       "start_line2_text" : "action s 32",
                                       "end_line1_text" : "action e 31 ",
                                       "end_line2_text" : "action e 32",
                                       "start_line1_icons" : [
                                                              40001
                                                              ],
                                       "start_line2_icons" : [
                                                              4001
                                                              ],
                                       "end_line1_icons" : [
                                                            40001
                                                            ],
                                       "end_line2_icons" : [
                                                            40002
                                                            ]
                                       },
                                       {
                                       "start_line1_text" : "action s 41",
                                       "start_line2_text" : "action s 42",
                                       "end_line1_text" : "action e 41 ",
                                       "end_line2_text" : "action e 42",
                                       "start_line1_icons" : [
                                                              40001
                                                              ],
                                       "start_line2_icons" : [
                                                              4001
                                                              ],
                                       "end_line1_icons" : [
                                                            40001
                                                            ],
                                       "end_line2_icons" : [
                                                            40002
                                                            ]
                                       },
                                       {
                                       "start_line1_text" : "action s 51",
                                       "start_line2_text" : "action s 52",
                                       "end_line1_text" : "action e 51 ",
                                       "end_line2_text" : "action e 52",
                                       "start_line1_icons" : [
                                                              40001
                                                              ],
                                       "start_line2_icons" : [
                                                              4001
                                                              ],
                                       "end_line1_icons" : [
                                                            40001
                                                            ],
                                       "end_line2_icons" : [
                                                            40002
                                                            ]
                                       },
                                       {
                                       "start_line1_text" : "action s 61",
                                       "start_line2_text" : "action s 62",
                                       "end_line1_text" : "action e 61 ",
                                       "end_line2_text" : "action e 62",
                                       "start_line1_icons" : [
                                                              40001
                                                              ],
                                       "start_line2_icons" : [
                                                              4001
                                                              ],
                                       "end_line1_icons" : [
                                                            40001
                                                            ],
                                       "end_line2_icons" : [
                                                            40002
                                                            ]
                                       }
                                       ]
                          },
                          {
                          "step_description_line1" : "line one description step 33",
                          "step_description_line2" : "line two discription 33",
                          "show_equal_action_count" : true,
                          "button_type" : 50004,
                          "actions" : [
                                       {
                                       "start_line1_text" : "action s 11",
                                       "start_line2_text" : "action s 12",
                                       "end_line1_text" : "action e 11 ",
                                       "end_line2_text" : "action e 12",
                                       "start_line1_icons" : [
                                                              40001
                                                              ],
                                       "start_line2_icons" : [
                                                              4001
                                                              ],
                                       "end_line1_icons" : [
                                                            40001
                                                            ],
                                       "end_line2_icons" : [
                                                            40002
                                                            ]
                                       },
                                       {
                                       "start_line1_text" : "action s 21",
                                       "start_line2_text" : "action s 22",
                                       "end_line1_text" : "action e 21 ",
                                       "end_line2_text" : "action e 22",
                                       "start_line1_icons" : [
                                                              40001
                                                              ],
                                       "start_line2_icons" : [
                                                              4001
                                                              ],
                                       "end_line1_icons" : [
                                                            40001
                                                            ],
                                       "end_line2_icons" : [
                                                            40002
                                                            ]
                                       },
                                       {
                                       "start_line1_text" : "action s 31",
                                       "start_line2_text" : "action s 32",
                                       "end_line1_text" : "action e 31 ",
                                       "end_line2_text" : "action e 32",
                                       "start_line1_icons" : [
                                                              40001
                                                              ],
                                       "start_line2_icons" : [
                                                              4001
                                                              ],
                                       "end_line1_icons" : [
                                                            40001
                                                            ],
                                       "end_line2_icons" : [
                                                            40002
                                                            ]
                                       },
                                       {
                                       "start_line1_text" : "action s 41",
                                       "start_line2_text" : "action s 42",
                                       "end_line1_text" : "action e 41 ",
                                       "end_line2_text" : "action e 42",
                                       "start_line1_icons" : [
                                                              40001
                                                              ],
                                       "start_line2_icons" : [
                                                              4001
                                                              ],
                                       "end_line1_icons" : [
                                                            40001
                                                            ],
                                       "end_line2_icons" : [
                                                            40002
                                                            ]
                                       },
                                       {
                                       "start_line1_text" : "action s 51",
                                       "start_line2_text" : "action s 52",
                                       "end_line1_text" : "action e 51 ",
                                       "end_line2_text" : "action e 52",
                                       "start_line1_icons" : [
                                                              40001
                                                              ],
                                       "start_line2_icons" : [
                                                              4001
                                                              ],
                                       "end_line1_icons" : [
                                                            40001
                                                            ],
                                       "end_line2_icons" : [
                                                            40002
                                                            ]
                                       },
                                       {
                                       "start_line1_text" : "action s 61",
                                       "start_line2_text" : "action s 62",
                                       "end_line1_text" : "action e 61 ",
                                       "end_line2_text" : "action e 62",
                                       "start_line1_icons" : [
                                                              40001
                                                              ],
                                       "start_line2_icons" : [
                                                              4001
                                                              ],
                                       "end_line1_icons" : [
                                                            40001
                                                            ],
                                       "end_line2_icons" : [
                                                            40002
                                                            ]
                                       }
                                       ]
                          }
                          ]
               },
               {
               "page_type" : 30001,
               "steps" : [
                          {
                          "step_description_line1" : "line one description",
                          "step_description_line2" : "line two discription",
                          "show_equal_action_count" : false,
                          "button_type" : 50006,
                          "actions" : [
                                       {
                                       "start_line1_text" : "empty",
                                       "start_line2_text" : "empty 2",
                                       "end_line1_text" : "home tapped",
                                       "end_line2_text" : "home tapped 2",
                                       "start_line1_icons" : [
                                                              40001
                                                              ],
                                       "start_line2_icons" : [
                                                              4001
                                                              ],
                                       "end_line1_icons" : [
                                                            40001
                                                            ],
                                       "end_line2_icons" : [
                                                            40002
                                                            ]
                                       }
                                       ]
                          }
                          ]
               },
               {
               "page_type" : 30001,
               "steps" : [
                          {
                          "step_description_line1" : "line one description",
                          "step_description_line2" : "line two discription",
                          "show_equal_action_count" : false,
                          "button_type" : 50006,
                          "actions" : [
                                       {
                                       "start_line1_text" : "empty",
                                       "start_line2_text" : "empty 2",
                                       "end_line1_text" : "home tapped",
                                       "end_line2_text" : "home tapped 2",
                                       "start_line1_icons" : [
                                                              40001
                                                              ],
                                       "start_line2_icons" : [
                                                              4001
                                                              ],
                                       "end_line1_icons" : [
                                                            40001
                                                            ],
                                       "end_line2_icons" : [
                                                            40002
                                                            ]
                                       }
                                       ]
                          }
                          ]
               },
               {
               "page_type" : 30003,
               "hint_text" : "Ein Hinweis Text",
               "steps" : []
               }
               ]
}